{
    "clustering_res": {
        "songs": [
            {
                "spotify_id": "6mAz8D1TmlTuef90dbNIiZ",
                "Position": 25.0,
                "Artist": "Rich The Kid",
                "Track Name": "Plug Walk",
                "Streams": 1996710,
                "instrumentalness": 0.0,
                "danceability": 0.876,
                "energy": 0.519,
                "loudness": -6.531,
                "speechiness": 0.143,
                "acousticness": 0.202,
                "liveness": 0.108,
                "valence": 0.158,
                "tempo": 94.981,
                "cluster": 0,
                "dist": 0.3201687679958812
            },
            {
                "spotify_id": "08bNPGLD8AhKpnnERrAc6G",
                "Position": 42.0,
                "Artist": "Marshmello",
                "Track Name": "FRIENDS",
                "Streams": 1567617,
                "instrumentalness": 0.0,
                "danceability": 0.626,
                "energy": 0.88,
                "loudness": -2.384,
                "speechiness": 0.0504,
                "acousticness": 0.205,
                "liveness": 0.128,
                "valence": 0.534,
                "tempo": 95.079,
                "cluster": 0,
                "dist": 0.5702085934112181
            },
            {
                "spotify_id": "7BKLCZ1jbUBVqRi2FVlTVw",
                "Position": 2.0,
                "Artist": "The Chainsmokers",
                "Track Name": "Closer",
                "Streams": 3015525.0,
                "instrumentalness": 0.0,
                "danceability": 0.748,
                "energy": 0.524,
                "loudness": -5.599,
                "speechiness": 0.0338,
                "acousticness": 0.414,
                "liveness": 0.111,
                "valence": 0.661,
                "tempo": 95.01,
                "cluster": 0,
                "dist": 0.5794517753877361
            },
             {
                "spotify_id": "2cYnZNzFRFK0H7vSNxPsUq",
                "Position": 127.0,
                "Artist": "Anuel AA",
                "Track Name": "Ella Quiere Beber - Remix",
                "Streams": 759484,
                "instrumentalness": 0.0,
                "danceability": 0.751,
                "energy": 0.665,
                "loudness": -3.083,
                "speechiness": 0.124,
                "acousticness": 0.265,
                "liveness": 0.0515,
                "valence": 0.698,
                "tempo": 95.239,
                "cluster": 0,
                "dist": 0.6405848031291428
            },
             {
                "spotify_id": "322tcqPhma7F6hfCeLisx0",
                "Position": 31.0,
                "Artist": "Lauv",
                "Track Name": "fuck, i'm lonely",
                "Streams": 1809799,
                "instrumentalness": 0.0,
                "danceability": 0.806,
                "energy": 0.558,
                "loudness": -6.46,
                "speechiness": 0.0683,
                "acousticness": 0.482,
                "liveness": 0.0618,
                "valence": 0.678,
                "tempo": 95.016,
                "cluster": 0,
                "dist": 0.6495795948149845
            },
             {
                "spotify_id": "1bhUWB0zJMIKr9yVPrkEuI",
                "Position": 3.0,
                "Artist": "Ed Sheeran",
                "Track Name": "Perfect Duet (Ed Sheeran & Beyonc\u00e9)",
                "Streams": 4250965,
                "instrumentalness": 0.0,
                "danceability": 0.587,
                "energy": 0.299,
                "loudness": -7.365,
                "speechiness": 0.0263,
                "acousticness": 0.779,
                "liveness": 0.123,
                "valence": 0.356,
                "tempo": 94.992,
                "cluster": 0,
                "dist": 0.6639334379288326
            },
           {
                "spotify_id": "6UelLqGlWMcVH1E5c4H7lY",
                "Position": 5.0,
                "Artist": "Harry Styles",
                "Track Name": "Watermelon Sugar",
                "Streams": 3998818,
                "instrumentalness": 0.0,
                "danceability": 0.548,
                "energy": 0.816,
                "loudness": -4.209,
                "speechiness": 0.0465,
                "acousticness": 0.122,
                "liveness": 0.335,
                "valence": 0.557,
                "tempo": 95.39,
                "cluster": 0,
                "dist": 0.6779460819268759
            },
             {
                "spotify_id": "4w47S36wQGBhGg073q3nt7",
                "Position": 62.0,
                "Artist": "ROSAL\u00cdA",
                "Track Name": "TKN (feat. Travis Scott)",
                "Streams": 1232134,
                "instrumentalness": 1.49e-06,
                "danceability": 0.776,
                "energy": 0.509,
                "loudness": -6.266,
                "speechiness": 0.467,
                "acousticness": 0.192,
                "liveness": 0.115,
                "valence": 0.485,
                "tempo": 94.634,
                "cluster": 0,
                "dist": 0.7116708789883125
            },
             {
                "spotify_id": "4QtiVmuA88tPQiCOHZuQ5b",
                "Position": 176.0,
                "Artist": "Sofia Reyes",
                "Track Name": "1, 2, 3 (feat. Jason Derulo & De La Ghetto)",
                "Streams": 619101,
                "instrumentalness": 0.0,
                "danceability": 0.792,
                "energy": 0.895,
                "loudness": -3.112,
                "speechiness": 0.0589,
                "acousticness": 0.165,
                "liveness": 0.0501,
                "valence": 0.794,
                "tempo": 94.968,
                "cluster": 0,
                "dist": 0.8000383115826385
            },
             {
                "spotify_id": "2VxeLyX666F8uXCJ0dZF8B",
                "Position": 50.0,
                "Artist": "Lady Gaga",
                "Track Name": "Shallow",
                "Streams": 1489777,
                "instrumentalness": 0.0,
                "danceability": 0.572,
                "energy": 0.385,
                "loudness": -6.362,
                "speechiness": 0.0308,
                "acousticness": 0.371,
                "liveness": 0.231,
                "valence": 0.323,
                "tempo": 95.799,
                "cluster": 0,
                "dist": 0.8054009932946533
            }
        ]
        
    },
    "classification_res": {
        "genre_pred": "hiphop",
        "songs":[ 
             {
                "name": "MOVIN' DIFFERENT (feat. McClenney)",
                "artist": "Wale",
                "spotify_id": "4KyCV8JfbknCNM9MqiuKMv",
                "danceability": 0.897,
                "energy": 0.716,
                "key": 3,
                "loudness": -3.549,
                "mode": 0,
                "speechiness": 0.161,
                "acousticness": 0.435,
                "instrumentalness": 0.0,
                "liveness": 0.0676,
                "valence": 0.812,
                "tempo": 110.052,
                "duration_ms": 182182,
                "time_signature": 4,
                "genre": "hiphop"
            },
            {
                "name": "Location",
                "artist": "Playboi Carti",
                "spotify_id": "3yk7PJnryiJ8mAPqsrujzf",
                "danceability": 0.717,
                "energy": 0.79,
                "key": 11,
                "loudness": -4.213,
                "mode": 1,
                "speechiness": 0.2,
                "acousticness": 0.33,
                "instrumentalness": 0.000125,
                "liveness": 0.518,
                "valence": 0.371,
                "tempo": 125.985,
                "duration_ms": 168784,
                "time_signature": 4,
                "genre": "hiphop"
            },
             {
                "name": "Expensive (feat. Nicki Minaj)",
                "artist": "Ty Dolla $ign",
                "spotify_id": "0IAkpYTRomExXOUJonNMTR",
                "danceability": 0.866,
                "energy": 0.531,
                "key": 9,
                "loudness": -6.859,
                "mode": 1,
                "speechiness": 0.0703,
                "acousticness": 0.0379,
                "instrumentalness": 0.0,
                "liveness": 0.0937,
                "valence": 0.266,
                "tempo": 99.069,
                "duration_ms": 135740,
                "time_signature": 4,
                "genre": "hiphop"
            },
             {
                "name": "Afrobounce",
                "artist": "Culture",
                "spotify_id": "2jUts4IxBdPGGhmpx49v5G",
                "danceability": 0.727,
                "energy": 0.564,
                "key": 6,
                "loudness": -10.869,
                "mode": 1,
                "speechiness": 0.0617,
                "acousticness": 0.735,
                "instrumentalness": 0.884,
                "liveness": 0.0933,
                "valence": 0.937,
                "tempo": 94.988,
                "duration_ms": 103000,
                "time_signature": 4,
                "genre": "hiphop"
            },
             {
                "name": "ICE (feat. MORGENSHTERN)",
                "artist": "MORGENSHTERN",
                "spotify_id": "2E5NGLtMqDmeijWcntP8Ca",
                "danceability": 0.859,
                "energy": 0.876,
                "key": 5,
                "loudness": -5.14,
                "mode": 0,
                "speechiness": 0.368,
                "acousticness": 0.081,
                "instrumentalness": 0.00137,
                "liveness": 0.385,
                "valence": 0.885,
                "tempo": 151.896,
                "duration_ms": 126000,
                "time_signature": 4,
                "genre": "hiphop"
            },
            {
                "name": "4 Da Kidz",
                "artist": "Kid Cudi",
                "spotify_id": "2ZDRkJrKbceJRgLKkuex14",
                "danceability": 0.41,
                "energy": 0.602,
                "key": 5,
                "loudness": -9.545,
                "mode": 1,
                "speechiness": 0.0589,
                "acousticness": 0.407,
                "instrumentalness": 0.142,
                "liveness": 0.635,
                "valence": 0.393,
                "tempo": 134.224,
                "duration_ms": 184240,
                "time_signature": 5,
                "genre": "hiphop"
            },
             {
                "name": "Suede",
                "artist": "NxWorries",
                "spotify_id": "4F07ku5lMBIoybFPStM2j4",
                "danceability": 0.669,
                "energy": 0.735,
                "key": 10,
                "loudness": -7.264,
                "mode": 1,
                "speechiness": 0.329,
                "acousticness": 0.459,
                "instrumentalness": 0.0,
                "liveness": 0.103,
                "valence": 0.723,
                "tempo": 117.284,
                "duration_ms": 174867,
                "time_signature": 4,
                "genre": "hiphop"
            },
             {
                "name": "Cliff Hanger",
                "artist": "Action Bronson",
                "spotify_id": "6EpGSeInzJgZVDVgfpMn7h",
                "danceability": 0.751,
                "energy": 0.684,
                "key": 6,
                "loudness": -7.167,
                "mode": 1,
                "speechiness": 0.267,
                "acousticness": 0.157,
                "instrumentalness": 0.0,
                "liveness": 0.334,
                "valence": 0.693,
                "tempo": 136.078,
                "duration_ms": 140613,
                "time_signature": 3,
                "genre": "hiphop"
            },
             {
                "name": "Foe Life",
                "artist": "Mack 10",
                "spotify_id": "28SF0lKRqso9SSTDpbv991",
                "danceability": 0.917,
                "energy": 0.665,
                "key": 8,
                "loudness": -6.053,
                "mode": 1,
                "speechiness": 0.0924,
                "acousticness": 0.0816,
                "instrumentalness": 0.0,
                "liveness": 0.196,
                "valence": 0.808,
                "tempo": 91.082,
                "duration_ms": 253800,
                "time_signature": 4,
                "genre": "hiphop"
            },
            {
                "name": "Da Funk - Remix",
                "artist": "Undagawds",
                "spotify_id": "618v3e5XnQoa2iqe5F8HrH",
                "danceability": 0.667,
                "energy": 0.601,
                "key": 8,
                "loudness": -8.025,
                "mode": 0,
                "speechiness": 0.481,
                "acousticness": 0.352,
                "instrumentalness": 0.0,
                "liveness": 0.16,
                "valence": 0.716,
                "tempo": 83.37,
                "duration_ms": 152179,
                "time_signature": 4,
                "genre": "hiphop"
            }
        ]
        
    },
    "timeSeries_res": {
        "errors": [
            1.6877382501220581,
            0.7917667902890152,
            8.156653078229914e-07
        ],
        "inights": "This song may be successful in three months."
    }
}
